(:key3 "Other":key1 gdfgll:key2 0b1110001:)
(:key1 'o':key2 0X0100F:key3 "qerty":)
(:key1 'd':key2 68ULL:key3 "moon":)
(:key1 50ll:key2 0b1010101:key3 "qdqw":)
(:key1 50000:key2 0b1010101:key3 "sax":)
(:key3 "Other":key1 100:key2 1110001:)
(:key1 'g':key3 "stars":key2 76ULL:)
(:key1 'H':key2 28ULL:key3 "milkyway":)